%YAML 1.1
%TAG !u! tag:unity3d.com,2011:
--- !u!74 &7400000
AnimationClip:
  m_ObjectHideFlags: 0
  m_CorrespondingSourceObject: {fileID: 0}
  m_PrefabInstance: {fileID: 0}
  m_PrefabAsset: {fileID: 0}
  m_Name: OpenBoxAnim
  serializedVersion: 6
  m_Legacy: 0
  m_Compressed: 0
  m_UseHighQualityCurve: 1
  m_RotationCurves: []
  m_CompressedRotationCurves: []
  m_EulerCurves: []
  m_PositionCurves: []
  m_ScaleCurves: []
  m_FloatCurves: []
  m_PPtrCurves:
  - curve:
    - time: 0
      value: {fileID: 4451280543070230783, guid: 3d7156044be5ba84d994b229dc60abe4,
        type: 3}
    - time: 0.033333335
      value: {fileID: -7303115890775939442, guid: 3d7156044be5ba84d994b229dc60abe4,
        type: 3}
    - time: 0.06666667
      value: {fileID: -8740898487919942487, guid: 3d7156044be5ba84d994b229dc60abe4,
        type: 3}
    - time: 0.1
      value: {fileID: -5300328496674028640, guid: 3d7156044be5ba84d994b229dc60abe4,
        type: 3}
    - time: 0.13333334
      value: {fileID: 7428651483235730139, guid: 3d7156044be5ba84d994b229dc60abe4,
        type: 3}
    - time: 0.16666667
      value: {fileID: -1102401600382895693, guid: 3d7156044be5ba84d994b229dc60abe4,
        type: 3}
    - time: 0.2
      value: {fileID: -471237022642633157, guid: 3d7156044be5ba84d994b229dc60abe4,
        type: 3}
    - time: 0.23333333
      value: {fileID: -3376503201137783016, guid: 3d7156044be5ba84d994b229dc60abe4,
        type: 3}
    - time: 0.26666668
      value: {fileID: -6578333302461410636, guid: 3d7156044be5ba84d994b229dc60abe4,
        type: 3}
    - time: 0.3
      value: {fileID: 4762531069737505575, guid: 3d7156044be5ba84d994b229dc60abe4,
        type: 3}
    - time: 0.33333334
      value: {fileID: 2759557950326847337, guid: 3d7156044be5ba84d994b229dc60abe4,
        type: 3}
    - time: 0.36666667
      value: {fileID: 3680543972560427522, guid: 3d7156044be5ba84d994b229dc60abe4,
        type: 3}
    - time: 0.38333333
      value: {fileID: 5697005412329901611, guid: 3d7156044be5ba84d994b229dc60abe4,
        type: 3}
    - time: 0.41666666
      value: {fileID: 6201503543783601876, guid: 3d7156044be5ba84d994b229dc60abe4,
        type: 3}
    - time: 0.45
      value: {fileID: -3382045024594240662, guid: 3d7156044be5ba84d994b229dc60abe4,
        type: 3}
    - time: 0.48333332
      value: {fileID: 2568341299367452078, guid: 3d7156044be5ba84d994b229dc60abe4,
        type: 3}
    - time: 0.51666665
      value: {fileID: -7804897776415337482, guid: 3d7156044be5ba84d994b229dc60abe4,
        type: 3}
    - time: 0.55
      value: {fileID: -466778832063342408, guid: 3d7156044be5ba84d994b229dc60abe4,
        type: 3}
    - time: 0.5833333
      value: {fileID: 7327842945474382022, guid: 3d7156044be5ba84d994b229dc60abe4,
        type: 3}
    - time: 0.6166667
      value: {fileID: -2903636022410262671, guid: 3d7156044be5ba84d994b229dc60abe4,
        type: 3}
    - time: 0.65
      value: {fileID: 5675627204300066174, guid: 3d7156044be5ba84d994b229dc60abe4,
        type: 3}
    - time: 0.68333334
      value: {fileID: -8022567607419666896, guid: 3d7156044be5ba84d994b229dc60abe4,
        type: 3}
    - time: 0.71666664
      value: {fileID: 2103166536949308621, guid: 3d7156044be5ba84d994b229dc60abe4,
        type: 3}
    - time: 0.75
      value: {fileID: -4635122305632454007, guid: 3d7156044be5ba84d994b229dc60abe4,
        type: 3}
    - time: 0.78333336
      value: {fileID: 7699831398489237561, guid: 3d7156044be5ba84d994b229dc60abe4,
        type: 3}
    - time: 0.81666666
      value: {fileID: 5277805771001682255, guid: 3d7156044be5ba84d994b229dc60abe4,
        type: 3}
    - time: 0.85
      value: {fileID: 7672466572029593702, guid: 3d7156044be5ba84d994b229dc60abe4,
        type: 3}
    - time: 0.8833333
      value: {fileID: 1516626853049511620, guid: 3d7156044be5ba84d994b229dc60abe4,
        type: 3}
    - time: 0.9166667
      value: {fileID: -6165027373131966188, guid: 3d7156044be5ba84d994b229dc60abe4,
        type: 3}
    - time: 0.95
      value: {fileID: -283705522663407049, guid: 3d7156044be5ba84d994b229dc60abe4,
        type: 3}
    - time: 0.98333335
      value: {fileID: -1258134359654056847, guid: 3d7156044be5ba84d994b229dc60abe4,
        type: 3}
    - time: 1.0166667
      value: {fileID: 7002242763284040293, guid: 3d7156044be5ba84d994b229dc60abe4,
        type: 3}
    - time: 1.05
      value: {fileID: 6641171395178543545, guid: 3d7156044be5ba84d994b229dc60abe4,
        type: 3}
    - time: 1.0833334
      value: {fileID: 8082296254738951869, guid: 3d7156044be5ba84d994b229dc60abe4,
        type: 3}
    - time: 1.1166667
      value: {fileID: 3936237399604164766, guid: 3d7156044be5ba84d994b229dc60abe4,
        type: 3}
    - time: 1.1333333
      value: {fileID: 3177397596423830660, guid: 3d7156044be5ba84d994b229dc60abe4,
        type: 3}
    - time: 1.1666666
      value: {fileID: 4614385359613888950, guid: 3d7156044be5ba84d994b229dc60abe4,
        type: 3}
    - time: 1.2
      value: {fileID: -8280645537975568062, guid: 3d7156044be5ba84d994b229dc60abe4,
        type: 3}
    - time: 1.2333333
      value: {fileID: 9163833448914790630, guid: 3d7156044be5ba84d994b229dc60abe4,
        type: 3}
    - time: 1.2666667
      value: {fileID: 6364127640211838562, guid: 3d7156044be5ba84d994b229dc60abe4,
        type: 3}
    - time: 1.3
      value: {fileID: 1733853966081096943, guid: 3d7156044be5ba84d994b229dc60abe4,
        type: 3}
    - time: 1.3333334
      value: {fileID: 2652679912312001453, guid: 3d7156044be5ba84d994b229dc60abe4,
        type: 3}
    - time: 1.3666667
      value: {fileID: -1563990374163632482, guid: 3d7156044be5ba84d994b229dc60abe4,
        type: 3}
    - time: 1.4
      value: {fileID: 475269984317110022, guid: 3d7156044be5ba84d994b229dc60abe4,
        type: 3}
    - time: 1.4333333
      value: {fileID: -7542871520875810370, guid: 3d7156044be5ba84d994b229dc60abe4,
        type: 3}
    - time: 1.4666667
      value: {fileID: -6002368925964783941, guid: 3d7156044be5ba84d994b229dc60abe4,
        type: 3}
    - time: 1.5
      value: {fileID: -1960307724703548346, guid: 3d7156044be5ba84d994b229dc60abe4,
        type: 3}
    attribute: m_Sprite
    path: 
    classID: 114
    script: {fileID: 11500000, guid: fe87c0e1cc204ed48ad3b37840f39efc, type: 3}
  m_SampleRate: 60
  m_WrapMode: 0
  m_Bounds:
    m_Center: {x: 0, y: 0, z: 0}
    m_Extent: {x: 0, y: 0, z: 0}
  m_ClipBindingConstant:
    genericBindings:
    - serializedVersion: 2
      path: 0
      attribute: 2015549526
      script: {fileID: 11500000, guid: fe87c0e1cc204ed48ad3b37840f39efc, type: 3}
      typeID: 114
      customType: 0
      isPPtrCurve: 1
    pptrCurveMapping:
    - {fileID: 4451280543070230783, guid: 3d7156044be5ba84d994b229dc60abe4, type: 3}
    - {fileID: -7303115890775939442, guid: 3d7156044be5ba84d994b229dc60abe4, type: 3}
    - {fileID: -8740898487919942487, guid: 3d7156044be5ba84d994b229dc60abe4, type: 3}
    - {fileID: -5300328496674028640, guid: 3d7156044be5ba84d994b229dc60abe4, type: 3}
    - {fileID: 7428651483235730139, guid: 3d7156044be5ba84d994b229dc60abe4, type: 3}
    - {fileID: -1102401600382895693, guid: 3d7156044be5ba84d994b229dc60abe4, type: 3}
    - {fileID: -471237022642633157, guid: 3d7156044be5ba84d994b229dc60abe4, type: 3}
    - {fileID: -3376503201137783016, guid: 3d7156044be5ba84d994b229dc60abe4, type: 3}
    - {fileID: -6578333302461410636, guid: 3d7156044be5ba84d994b229dc60abe4, type: 3}
    - {fileID: 4762531069737505575, guid: 3d7156044be5ba84d994b229dc60abe4, type: 3}
    - {fileID: 2759557950326847337, guid: 3d7156044be5ba84d994b229dc60abe4, type: 3}
    - {fileID: 3680543972560427522, guid: 3d7156044be5ba84d994b229dc60abe4, type: 3}
    - {fileID: 5697005412329901611, guid: 3d7156044be5ba84d994b229dc60abe4, type: 3}
    - {fileID: 6201503543783601876, guid: 3d7156044be5ba84d994b229dc60abe4, type: 3}
    - {fileID: -3382045024594240662, guid: 3d7156044be5ba84d994b229dc60abe4, type: 3}
    - {fileID: 2568341299367452078, guid: 3d7156044be5ba84d994b229dc60abe4, type: 3}
    - {fileID: -7804897776415337482, guid: 3d7156044be5ba84d994b229dc60abe4, type: 3}
    - {fileID: -466778832063342408, guid: 3d7156044be5ba84d994b229dc60abe4, type: 3}
    - {fileID: 7327842945474382022, guid: 3d7156044be5ba84d994b229dc60abe4, type: 3}
    - {fileID: -2903636022410262671, guid: 3d7156044be5ba84d994b229dc60abe4, type: 3}
    - {fileID: 5675627204300066174, guid: 3d7156044be5ba84d994b229dc60abe4, type: 3}
    - {fileID: -8022567607419666896, guid: 3d7156044be5ba84d994b229dc60abe4, type: 3}
    - {fileID: 2103166536949308621, guid: 3d7156044be5ba84d994b229dc60abe4, type: 3}
    - {fileID: -4635122305632454007, guid: 3d7156044be5ba84d994b229dc60abe4, type: 3}
    - {fileID: 7699831398489237561, guid: 3d7156044be5ba84d994b229dc60abe4, type: 3}
    - {fileID: 5277805771001682255, guid: 3d7156044be5ba84d994b229dc60abe4, type: 3}
    - {fileID: 7672466572029593702, guid: 3d7156044be5ba84d994b229dc60abe4, type: 3}
    - {fileID: 1516626853049511620, guid: 3d7156044be5ba84d994b229dc60abe4, type: 3}
    - {fileID: -6165027373131966188, guid: 3d7156044be5ba84d994b229dc60abe4, type: 3}
    - {fileID: -283705522663407049, guid: 3d7156044be5ba84d994b229dc60abe4, type: 3}
    - {fileID: -1258134359654056847, guid: 3d7156044be5ba84d994b229dc60abe4, type: 3}
    - {fileID: 7002242763284040293, guid: 3d7156044be5ba84d994b229dc60abe4, type: 3}
    - {fileID: 6641171395178543545, guid: 3d7156044be5ba84d994b229dc60abe4, type: 3}
    - {fileID: 8082296254738951869, guid: 3d7156044be5ba84d994b229dc60abe4, type: 3}
    - {fileID: 3936237399604164766, guid: 3d7156044be5ba84d994b229dc60abe4, type: 3}
    - {fileID: 3177397596423830660, guid: 3d7156044be5ba84d994b229dc60abe4, type: 3}
    - {fileID: 4614385359613888950, guid: 3d7156044be5ba84d994b229dc60abe4, type: 3}
    - {fileID: -8280645537975568062, guid: 3d7156044be5ba84d994b229dc60abe4, type: 3}
    - {fileID: 9163833448914790630, guid: 3d7156044be5ba84d994b229dc60abe4, type: 3}
    - {fileID: 6364127640211838562, guid: 3d7156044be5ba84d994b229dc60abe4, type: 3}
    - {fileID: 1733853966081096943, guid: 3d7156044be5ba84d994b229dc60abe4, type: 3}
    - {fileID: 2652679912312001453, guid: 3d7156044be5ba84d994b229dc60abe4, type: 3}
    - {fileID: -1563990374163632482, guid: 3d7156044be5ba84d994b229dc60abe4, type: 3}
    - {fileID: 475269984317110022, guid: 3d7156044be5ba84d994b229dc60abe4, type: 3}
    - {fileID: -7542871520875810370, guid: 3d7156044be5ba84d994b229dc60abe4, type: 3}
    - {fileID: -6002368925964783941, guid: 3d7156044be5ba84d994b229dc60abe4, type: 3}
    - {fileID: -1960307724703548346, guid: 3d7156044be5ba84d994b229dc60abe4, type: 3}
  m_AnimationClipSettings:
    serializedVersion: 2
    m_AdditiveReferencePoseClip: {fileID: 0}
    m_AdditiveReferencePoseTime: 0
    m_StartTime: 0
    m_StopTime: 1.5166667
    m_OrientationOffsetY: 0
    m_Level: 0
    m_CycleOffset: 0
    m_HasAdditiveReferencePose: 0
    m_LoopTime: 0
    m_LoopBlend: 0
    m_LoopBlendOrientation: 0
    m_LoopBlendPositionY: 0
    m_LoopBlendPositionXZ: 0
    m_KeepOriginalOrientation: 0
    m_KeepOriginalPositionY: 1
    m_KeepOriginalPositionXZ: 0
    m_HeightFromFeet: 0
    m_Mirror: 0
  m_EditorCurves: []
  m_EulerEditorCurves: []
  m_HasGenericRootTransform: 0
  m_HasMotionFloatCurves: 0
  m_Events: []
